<?xml version="1.0" encoding="utf-8"?>
<!-- Generator: Adobe Illustrator 24.1.0, SVG Export Plug-In . SVG Version: 6.00 Build 0)  -->
<svg version="1.1" id="Capa_1" xmlns="http://www.w3.org/2000/svg" xmlns:xlink="http://www.w3.org/1999/xlink" x="0px" y="0px"
	 viewBox="0 0 1004.8 87.8" style="enable-background:new 0 0 1004.8 87.8;" xml:space="preserve">
<style type="text/css">
	.st0{fill:none;stroke:#5A9BD4;stroke-width:2;stroke-miterlimit:10;}
	.st1{fill:#5A9BD4;}
	.st2{fill:#FFFFFF;}
	.st3{font-family:'Poppins-Regular';}
	.st4{font-size:17.4486px;}
</style>
<g>
	<g>
		<line class="st0" x1="62.1" y1="22.7" x2="942.7" y2="24.5"/>
		<g>
			<polygon class="st1" points="48,22.6 67.9,30.8 63.1,22.7 67.9,14.5 			"/>
		</g>
		<g>
			<polygon class="st1" points="956.9,24.5 937,32.6 941.7,24.5 937,16.3 			"/>
		</g>
	</g>
</g>
<path class="st1" d="M412.7,65.6H203.4c-7.8,0-14.1-6.3-14.1-14.1V49c0-7.8,6.3-14.1,14.1-14.1h209.3c7.8,0,14.1,6.3,14.1,14.1v2.5
	C426.7,59.3,420.4,65.6,412.7,65.6z"/>
<text transform="matrix(1.0127 0 0 1 198.6388 56.6367)" class="st2 st3 st4">Menos empoderamiento</text>
<path class="st1" d="M744.4,65.6h-191c-7.8,0-14.1-6.3-14.1-14.1V49c0-7.8,6.3-14.1,14.1-14.1h191c7.8,0,14.1,6.3,14.1,14.1v2.5
	C758.5,59.3,752.2,65.6,744.4,65.6z"/>
<text transform="matrix(1.0127 0 0 1 552.6989 56.6367)" class="st2 st3 st4">Más empoderamiento</text>
</svg>
