<?xml version="1.0" encoding="utf-8"?>
<!-- Generator: Adobe Illustrator 24.1.0, SVG Export Plug-In . SVG Version: 6.00 Build 0)  -->
<svg version="1.1" id="Capa_1" xmlns="http://www.w3.org/2000/svg" xmlns:xlink="http://www.w3.org/1999/xlink" x="0px" y="0px"
	 viewBox="0 0 813.5 70.7" style="enable-background:new 0 0 813.5 70.7;" xml:space="preserve">
<style type="text/css">
	.st0{fill:none;stroke:#5A9BD4;stroke-width:2;stroke-miterlimit:10;}
	.st1{fill:#5A9BD4;}
	.st2{fill:#FFFFFF;}
	.st3{font-family:'Poppins-Regular';}
	.st4{font-size:16px;}
</style>
<g>
	<g>
		<line class="st0" x1="20.7" y1="20.9" x2="791.2" y2="22.5"/>
		<g>
			<polygon class="st1" points="6.6,20.9 26.5,29 21.8,20.9 26.5,12.8 			"/>
		</g>
		<g>
			<polygon class="st1" points="805.3,22.5 785.4,30.6 790.2,22.5 785.4,14.3 			"/>
		</g>
	</g>
</g>
<path class="st1" d="M241.6,58.7H100.9c-7.8,0-14.1-6.3-14.1-14.1v0c0-7.8,6.3-14.1,14.1-14.1h140.7c7.8,0,14.1,6.3,14.1,14.1v0
	C255.6,52.4,249.3,58.7,241.6,58.7z"/>
<text transform="matrix(1 0 0 1 93.2631 50.5261)" class="st2 st3 st4"> Menos integración</text>
<path class="st1" d="M708.9,58.7H568.3c-7.8,0-14.1-6.3-14.1-14.1v0c0-7.8,6.3-14.1,14.1-14.1h140.7c7.8,0,14.1,6.3,14.1,14.1v0
	C723,52.4,716.7,58.7,708.9,58.7z"/>
<text transform="matrix(1 0 0 1 571.3148 50.5259)" class="st2 st3 st4">  Más integración</text>
</svg>
