<?xml version="1.0" encoding="utf-8"?>
<!-- Generator: Adobe Illustrator 24.1.0, SVG Export Plug-In . SVG Version: 6.00 Build 0)  -->
<svg version="1.1" id="Capa_1" xmlns="http://www.w3.org/2000/svg" xmlns:xlink="http://www.w3.org/1999/xlink" x="0px" y="0px"
	 viewBox="0 0 949.9 87.8" style="enable-background:new 0 0 949.9 87.8;" xml:space="preserve">
<style type="text/css">
	.st0{fill:none;stroke:#5A9BD4;stroke-width:2;stroke-miterlimit:10;}
	.st1{fill:#5A9BD4;}
	.st2{fill:#FFFFFF;}
	.st3{font-family:'Poppins-Regular';}
	.st4{font-size:17.4486px;}
</style>
<g>
	<g>
		<line class="st0" x1="28.3" y1="28.7" x2="909" y2="30.5"/>
		<g>
			<polygon class="st1" points="14.2,28.6 34.1,36.8 29.4,28.7 34.1,20.5 			"/>
		</g>
		<g>
			<polygon class="st1" points="923.1,30.5 903.2,38.6 907.9,30.5 903.2,22.3 			"/>
		</g>
	</g>
</g>
<path class="st1" d="M364.9,74.6H180.5c-7.8,0-14.1-6.3-14.1-14.1v-2.5c0-7.8,6.3-14.1,14.1-14.1h184.4c7.8,0,14.1,6.3,14.1,14.1
	v2.5C378.9,68.4,372.7,74.6,364.9,74.6z"/>
<text transform="matrix(1.0127 0 0 1 175.7024 65.6958)" class="st2 st3 st4">Trabajo menos digno</text>
<path class="st1" d="M691.9,74.5H528.2c-7.8,0-14.1-6.3-14.1-14.1v-2.5c0-7.8,6.3-14.1,14.1-14.1h163.7c7.8,0,14.1,6.3,14.1,14.1
	v2.5C706,68.3,699.7,74.5,691.9,74.5z"/>
<text transform="matrix(1.0127 0 0 1 527.4357 65.5906)" class="st2 st3 st4">Trabajo más digno</text>
</svg>
