<?xml version="1.0" encoding="utf-8"?>
<!-- Generator: Adobe Illustrator 24.1.0, SVG Export Plug-In . SVG Version: 6.00 Build 0)  -->
<svg version="1.1" id="Capa_1" xmlns="http://www.w3.org/2000/svg" xmlns:xlink="http://www.w3.org/1999/xlink" x="0px" y="0px"
	 viewBox="0 0 545.6 1784.3" style="enable-background:new 0 0 545.6 1784.3;" xml:space="preserve">
<style type="text/css">
	.st0{fill:#F18F01;}
</style>
<path class="st0" d="M24.8,822.7c152.1,0,173.5-83.5,173.5-158.5c0-60-8.6-119.9-17.1-179.9c-8.6-60-17.1-117.8-17.1-177.8
	C164,109.5,292.5,26,474.6,26h45v117.8H481c-126.4,0-169.2,68.5-169.2,184.2c0,49.3,6.4,100.7,15,152.1c8.6,53.5,15,104.9,15,162.8
	c2.1,137.1-57.8,205.6-154.2,231.3v4.3c96.4,23.6,156.3,96.4,154.2,233.5c0,57.8-6.4,111.4-15,162.8c-8.6,53.5-15,102.8-15,154.2
	c0,119.9,49.3,186.3,169.2,186.3h38.6V1733h-45c-177.8,0-310.6-77.1-310.6-293.4c0-57.8,8.6-117.8,17.1-175.6
	c8.6-57.8,17.1-115.7,17.1-173.5c0-66.4-21.4-158.5-173.5-158.5V822.7z"/>
</svg>
